^C:\USERS\DACHI\DOCUMENTS\DEV OPENCV\EJEMPLOABRIRIMAGEN\EJEMPLOABRIRIMAGEN\DEBUG\EJEMPLOABRIRIMAGEN.EXE.EMBED.MANIFEST.RES|C:\USERS\DACHI\DOCUMENTS\DEV OPENCV\EJEMPLOABRIRIMAGEN\EJEMPLOABRIRIMAGEN\DEBUG\EJEMPLOABRIRIMAGEN.OBJ|C:\USERS\DACHI\DOCUMENTS\DEV OPENCV\EJEMPLOABRIRIMAGEN\EJEMPLOABRIRIMAGEN\DEBUG\STDAFX.OBJ
C:\USERS\DACHI\DOCUMENTS\DEV OPENCV\EJEMPLOABRIRIMAGEN\DEBUG\EJEMPLOABRIRIMAGEN.ILK
C:\USERS\DACHI\DOCUMENTS\DEV OPENCV\EJEMPLOABRIRIMAGEN\DEBUG\EJEMPLOABRIRIMAGEN.EXE
C:\USERS\DACHI\DOCUMENTS\DEV OPENCV\EJEMPLOABRIRIMAGEN\EJEMPLOABRIRIMAGEN\DEBUG\EJEMPLOABRIRIMAGEN.EXE.INTERMEDIATE.MANIFEST
C:\USERS\DACHI\DOCUMENTS\DEV OPENCV\EJEMPLOABRIRIMAGEN\DEBUG\EJEMPLOABRIRIMAGEN.PDB
